core/design/reports/ALU/alu.vcd
$comment
TOOL:	simvision	06.20-s002
$end

$date
    Sep 03, 2010 11:16:03
$end

$timescale
    10ps
$end


$scope module alu_tb $end
$var wire 8 ! alu_operand1_i [7:0] $end
$var wire 8 " alu_operand2_i [7:0] $end

$scope module DUT $end
$var wire 1 # alu_ac_i $end
$var wire 1 $ alu_ac_o $end
$var wire 1 % alu_c6 $end
$var wire 1 & alu_cin $end
$var wire 1 ' alu_cy_i $end
$var wire 1 ( alu_cy_o $end
$var wire 1 ) alu_en_i $end
$var wire 5 * alu_opcode_i [4:0] $end
$var wire 1 + alu_ov_o $end
$var wire 16 , alu_result_o [15:0] $end
$upscope $end

$upscope $end

$enddefinitions $end
#0
$dumpvars
bx !
bx "
x#
x$
x%
x&
x'
x(
x)
bx *
x+
bx ,
$end
#100
b100000 !
b110101 "
0)
b1 *
0+
b0 ,
0$
0(
#500
1(
1+
b10101010 "
0%
b11000011 !
0&
1)
b1101101 ,
#900
b1101110 ,
1&
b11 *
1'
#1300
0&
b1 "
0(
0+
b1111111 ,
b1111110 !
b10 *
#1700
b0 ,
1%
b11111111 !
#2100
b1000000 !
b1000001 ,
0%
#2500
b1111111 !
b101 *
b1111110 ,
#2900
b1111111111111111 ,
b0 !
#3300
b1000000 !
b111111 ,
#3700
b1110101 ,
b11001001 !
b1010100 "
b100 *
#4100
b11 *
b1010110 !
b10111110 ,
1&
1%
1+
b1100111 "
#4500
b10111110 !
b1000 *
1(
b100100 ,
0+
1$
#4900
0$
0(
b1110 *
b11000101 !
b11100010 ,
#5300
b1100010 ,
b1111 *
0'
1(
#5700
0(
b10001011 ,
b1100 *
#6100
b1101 *
b10001010 ,
1(
#6500
0(
b11010111 ,
b1010101 "
b1011 *
b11000011 !
#6900
b1000001 ,
b1001 *
#7300
b1010 *
b10101010 "
b1101001 ,
#7700
b1011100 ,
b10010 *
b11000101 !
#8100
b1011100 !
b10000 *
b1111111110100011 ,
#8500
b0 ,
b10001 *
1(
b110100 !
b1010110 "
#8900
b10100000 "
0(
b11001000000000 ,
b110 *
b1010000 !
1+
#9300
b0 ,
b0 "
b10110011 !
b111 *
#9700
b110100010001 ,
0+
b11111011 !
b10010 "
